{
  "kind": "collectionType",
  "collectionName": "companies",
  "info": {
    "name": "company",
    "description": ""
  },
  "options": {
    "increments": true,
    "timestamps": true,
    "draftAndPublish": true
  },
  "pluginOptions": {},
  "attributes": {
    "tradename": {
      "type": "string"
    },
    "rfc": {
      "type": "text"
    },
    "representative_name": {
      "type": "string"
    },
    "street_number": {
      "type": "string"
    },
    "postal_code": {
      "type": "string"
    },
    "state": {
      "type": "string"
    },
    "country": {
      "type": "string"
    },
    "city": {
      "type": "string"
    },
    "municipality": {
      "type": "string"
    },
    "colonia": {
      "type": "string"
    },
    "phone": {
      "type": "string"
    },
    "fiscal_situation": {
      "model": "file",
      "via": "related",
      "allowedTypes": [
        "files",
        "images"
      ],
      "plugin": "upload",
      "required": false,
      "pluginOptions": {}
    },
    "representative_id": {
      "model": "file",
      "via": "related",
      "allowedTypes": [
        "files",
        "images"
      ],
      "plugin": "upload",
      "required": false,
      "pluginOptions": {}
    },
    "buissiness_name": {
      "type": "string"
    },
    "interior_number": {
      "type": "string"
    },
    "users": {
      "via": "company",
      "plugin": "users-permissions",
      "collection": "user"
    }
  }
}
